Using spatial resamples for analysis
…
We can apply this function to just one of the
splits.

compute_preds(cluster_folds$splits[[7]]) 
#> # A tibble: 370 × 3
#>                geometry Sale_Price .pred
#>             <POINT [°]>      <dbl> <dbl>
#>  1 (-93.67907 42.03608)       4.83  4.99
#>  2  (-93.6772 42.03654)       5.05  5.20
#>  3 (-93.67367 42.03479)       5.17  5.14
#>  4 (-93.67096 42.03569)       5.14  5.06
#>  5  (-93.6721 42.03486)       5.09  5.07
#>  6 (-93.67207 42.03457)       5.12  5.11
#>  7 (-93.66969 42.03533)       5.10  5.10
#>  8  (-93.66067 42.0346)       5.23  5.25
#>  9 (-93.65921 42.03456)       5.12  5.26
#> 10 (-93.65623 42.03345)       5.39  5.33
#> # … with 360 more rows
…
library(tidyr)
library(yardstick)
#> For binary classification, the first factor level is assumed to be the event.
#> Use the argument `event_level = "second"` to alter this as needed.

cv_rmse <- cv_res %>%
  unnest(.preds) %>%
  group_by(id, type) %>%
  rmse(Sale_Price, .pred)

cv_rmse
#> # A tibble: 45 × 5
#>    id     type     .metric .estimator .estimate
#>    <chr>  <chr>    <chr>   <chr>          <dbl>
#>  1 Fold01 block    rmse    standard      0.0788
#>  2 Fold01 cluster  rmse    standard      0.0715
#>  3 Fold01 location rmse    standard      0.0861
#>  4 Fold02 block    rmse    standard      0.0705
#>  5 Fold02 cluster  rmse    standard      0.104 
#>  6 Fold02 location rmse    standard      0.121 
#>  7 Fold03 block    rmse    standard      0.0757
#>  8 Fold03 cluster  rmse    standard      0.107 
#>  9 Fold03 location rmse    standard      0.0655
#> 10 Fold04 block    rmse    standard      0.0962
#> # … with 35 more rows
…
